…
**4. How many total NA's are in each data set? Do these values make sense? Are NA's represented by values?**
These values almost don't seem to make sense. `amniota` seems to have no NAs, while `amphibio` seems to have a ridiculous number of NAs. It's likely that `amniota` uses numbers to represent NA, while `amphibio` uses NA to encode some other information.

``` r
miss_var_summary(amniota)
```

```
## # A tibble: 36 × 3
##    variable                  n_miss pct_miss
##    <chr>                      <int>    <num>
##  1 class                          0        0
##  2 order                          0        0
##  3 family                         0        0
##  4 genus                          0        0
##  5 species                        0        0
##  6 subspecies                     0        0
##  7 common_name                    0        0
##  8 female_maturity_d              0        0
##  9 litter_or_clutch_size_n        0        0
## 10 litters_or_clutches_per_y      0        0
## # ℹ 26 more rows
```

``` r
miss_var_summary(amphibio)
```

```
## # A tibble: 38 × 3
##    variable n_miss pct_miss
##    <chr>     <int>    <num>
##  1 fruits     6774    100. 
##  2 flowers    6772     99.9
##  3 seeds      6772     99.9
##  4 leaves     6752     99.6
##  5 dry_cold   6735     99.4
##  6 vert       6657     98.2
##  7 obs        6649     98.1
##  8 wet_cold   6625     97.8
##  9 crepu      6608     97.5
## 10 dry_warm   6572     97.0
## # ℹ 28 more rows
```
…
``` r
amniota <- amniota %>% 
  replace_with_na_all(condition = ~.x %in% c(common_na_strings, common_na_numbers))
amphibio <- amphibio %>% 
  replace_with_na_all(condition = ~.x %in% c(common_na_strings, common_na_numbers))
```

**6. Use the package `naniar` to produce a summary, including percentages, of missing data in each column for the `amniota` data.**  

``` r
miss_var_summary(amniota)
```

```
## # A tibble: 36 × 3
##    variable                       n_miss pct_miss
##    <chr>                           <int>    <num>
##  1 subspecies                      21322    100  
##  2 female_body_mass_at_maturity_g  21318    100. 
##  3 female_svl_at_maturity_cm       21120     99.1
##  4 fledging_mass_g                 21111     99.0
##  5 male_svl_cm                     21040     98.7
##  6 no_sex_maturity_d               20860     97.8
##  7 egg_width_mm                    20730     97.2
##  8 egg_length_mm                   20706     97.1
##  9 weaning_weight_g                20258     95.0
## 10 female_svl_cm                   20242     94.9
## # ℹ 26 more rows
```

**7. Use the package `naniar` to produce a summary, including percentages, of missing data in each column for the `amphibio` data.**

``` r
miss_var_summary(amphibio)
```

```
## # A tibble: 38 × 3
##    variable n_miss pct_miss
##    <chr>     <int>    <num>
##  1 fruits     6774    100. 
##  2 flowers    6772     99.9
##  3 seeds      6772     99.9
##  4 leaves     6752     99.6
##  5 dry_cold   6735     99.4
##  6 vert       6657     98.2
##  7 obs        6651     98.2
##  8 wet_cold   6625     97.8
##  9 crepu      6608     97.5
## 10 dry_warm   6572     97.0
## # ℹ 28 more rows
```
…
