…
4. What is the total catch for each `isscaap_taxonomic_group` in the data set?

``` r
fisheries %>% 
  group_by(isscaap_taxonomic_group) %>% 
  summarize(
    total = sum(catch, na.rm=T)) %>% 
  arrange(-total)
```

```
## # A tibble: 30 × 2
##    isscaap_taxonomic_group           total
##    <chr>                             <dbl>
##  1 Herrings, sardines, anchovies   1898529
##  2 Cods, hakes, haddocks           1218092
##  3 Miscellaneous pelagic fishes    1217644
##  4 Miscellaneous coastal fishes     995248
##  5 Tunas, bonitos, billfishes       978951
##  6 Marine fishes not identified     863949
##  7 Miscellaneous demersal fishes    452445
##  8 Squids, cuttlefishes, octopuses  311928
##  9 Sharks, rays, chimaeras          263569
## 10 Shrimps, prawns                  228203
## # ℹ 20 more rows
```

5. Based on the `asfis_species_name`, what are the top 5 most caught species? (note: "Osteichthyes" is not a species, it refers to unidentified fish. You should filter this one out.).

``` r
fisheries |> 
  filter(asfis_species_name != "Osteichthyes") |> 
  group_by(asfis_species_number, asfis_species_name) |> 
  summarize(total_catches = sum(catch, na.rm = TRUE), .groups = 'keep') |> 
  arrange(-total_catches)
```

```
## # A tibble: 1,547 × 3
## # Groups:   asfis_species_number, asfis_species_name [1,547]
##    asfis_species_number asfis_species_name      total_catches
##    <chr>                <chr>                           <dbl>
##  1 1210600208           Engraulis ringens              540739
##  2 1480401601           Theragra chalcogramma          473722
##  3 1210500105           Clupea harengus                264304
##  4 1480400202           Gadus morhua                   217930
##  5 1750102501           Katsuwonus pelamis             194923
##  6 1210501303           Sardinops sagax                176094
##  7 1750100201           Scomber japonicus              175444
##  8 1702300405           Trachurus murphyi              152034
##  9 1210501301           Sardinops melanostictus        144774
## 10 1230400201           Mallotus villosus              131239
## # ℹ 1,537 more rows
```
…
7. Which country had the largest overall catch between the years 2002-2012?

``` r
fisheries %>% 
  select(country, year, catch) %>% 
  filter(between(year, 2002, 2012)) %>%
    group_by(country) %>% 
    summarize(overall_catch = sum(catch, na.rm=TRUE)) %>% 
  arrange(-overall_catch)
```

```
## # A tibble: 200 × 2
##    country                  overall_catch
##    <chr>                            <dbl>
##  1 China                           269238
##  2 United States of America        167309
##  3 Russian Federation              112028
##  4 Indonesia                       104362
##  5 Japan                           104152
##  6 Chile                            97030
##  7 Spain                            92286
##  8 Peru                             86482
##  9 Portugal                         69778
## 10 India                            69681
## # ℹ 190 more rows
```

8. Which country had the largest catch in a single year? What year was it? 

``` r
fisheries %>% 
  select(country, year, catch) %>% 
    group_by(country, year) %>% 
    summarize(overall_catch = sum(catch, na.rm=TRUE), .groups='keep') %>% 
  arrange(-overall_catch)
```

```
## # A tibble: 11,583 × 3
## # Groups:   country, year [11,583]
##    country  year overall_catch
##    <chr>   <dbl>         <dbl>
##  1 Peru     1970         77000
##  2 Peru     1971         76800
##  3 Peru     1968         62700
##  4 China    2001         39327
##  5 Japan    1972         30167
##  6 Japan    1988         29701
##  7 China    2002         28967
##  8 China    2010         27851
##  9 Japan    1976         27825
## 10 China    1998         27593
## # ℹ 11,573 more rows
```

9. Fishing practices for sharks, rays, chimaeras and other cartilaginous fish (group 38) are of particular concern due to their conservation status. Make a new dataframe `sharks` that only contains data on this group. 

``` r
sharks <- fisheries %>% 
  filter(isscaap_group_number == "38")
sharks
```

```
## # A tibble: 23,210 × 10
##    country common_name               isscaap_group_number isscaap_taxonomic_gr…¹
##    <chr>   <chr>                                    <dbl> <chr>                 
##  1 Albania Angelsharks, sand devils…                   38 Sharks, rays, chimaer…
##  2 Albania Angelsharks, sand devils…                   38 Sharks, rays, chimaer…
##  3 Albania Angelsharks, sand devils…                   38 Sharks, rays, chimaer…
##  4 Albania Angelsharks, sand devils…                   38 Sharks, rays, chimaer…
##  5 Albania Angelsharks, sand devils…                   38 Sharks, rays, chimaer…
##  6 Albania Angelsharks, sand devils…                   38 Sharks, rays, chimaer…
##  7 Albania Angelsharks, sand devils…                   38 Sharks, rays, chimaer…
##  8 Albania Angelsharks, sand devils…                   38 Sharks, rays, chimaer…
##  9 Albania Angelsharks, sand devils…                   38 Sharks, rays, chimaer…
## 10 Albania Angelsharks, sand devils…                   38 Sharks, rays, chimaer…
## # ℹ 23,200 more rows
## # ℹ abbreviated name: ¹​isscaap_taxonomic_group
## # ℹ 6 more variables: asfis_species_number <chr>, asfis_species_name <chr>,
## #   fao_major_fishing_area <dbl>, measure <chr>, year <dbl>, catch <dbl>
```

10. Using the `sharks` dataframe, use `mutate()` to create a new column called `fishing_pressure` that is based on the total catch. If the total catch is greater than 75, the fishing pressure is considered "high", otherwise it is considered "moderate".

``` r
sharks %>% 
  mutate(fishing_pressure = ifelse(catch > 75, "high", "moderate"))
```

```
## # A tibble: 23,210 × 11
##    country common_name               isscaap_group_number isscaap_taxonomic_gr…¹
##    <chr>   <chr>                                    <dbl> <chr>                 
##  1 Albania Angelsharks, sand devils…                   38 Sharks, rays, chimaer…
##  2 Albania Angelsharks, sand devils…                   38 Sharks, rays, chimaer…
##  3 Albania Angelsharks, sand devils…                   38 Sharks, rays, chimaer…
##  4 Albania Angelsharks, sand devils…                   38 Sharks, rays, chimaer…
##  5 Albania Angelsharks, sand devils…                   38 Sharks, rays, chimaer…
##  6 Albania Angelsharks, sand devils…                   38 Sharks, rays, chimaer…
##  7 Albania Angelsharks, sand devils…                   38 Sharks, rays, chimaer…
##  8 Albania Angelsharks, sand devils…                   38 Sharks, rays, chimaer…
##  9 Albania Angelsharks, sand devils…                   38 Sharks, rays, chimaer…
## 10 Albania Angelsharks, sand devils…                   38 Sharks, rays, chimaer…
## # ℹ 23,200 more rows
## # ℹ abbreviated name: ¹​isscaap_taxonomic_group
## # ℹ 7 more variables: asfis_species_number <chr>, asfis_species_name <chr>,
## #   fao_major_fishing_area <dbl>, measure <chr>, year <dbl>, catch <dbl>,
## #   fishing_pressure <chr>
```
…
12. Perform one analysis of your choice on the fisheries dataframe that includes a minimum of three lines of code and two functions. Write a sentence or two that explains the intent of your code.

``` r
fisheries %>% 
  select(country, asfis_species_name, catch) %>% #select variables of interest
  filter(catch >= 50) %>% #filtering for any catch above 50 tonnes
  group_by(country) %>% #grouping by country
  summarize(
    average_catch = mean(catch, na.rm=T), #calculate average catch per country
    n=n()) %>% 
  arrange(-average_catch) #arrange in desc order of catch per country
```

```
## # A tibble: 191 × 3
##    country                  average_catch     n
##    <chr>                            <dbl> <int>
##  1 Myanmar                          1590.    48
##  2 Peru                             1511.   391
##  3 Viet Nam                          869.   102
##  4 China                             705.  1022
##  5 Chile                             680.   514
##  6 Korea, Dem. People's Rep          447.    39
##  7 Norway                            405.   702
##  8 Un. Sov. Soc. Rep.                328.  1020
##  9 Japan                             321.  2306
## 10 Bangladesh                        321.    94
## # ℹ 181 more rows
```
…
